babel==2.16.0 ; python_version >= "3.10" and python_version < "4.0" \
    --hash=sha256:368b5b98b37c06b7daf6696391c3240c938b37767d4584413e8438c5c435fa8b \
    --hash=sha256:d1f3554ca26605fe173f3de0c65f750f5a42f924499bf134de6423582298e316
certifi==2024.12.14 ; python_version >= "3.10" and python_version < "4.0" \
    --hash=sha256:1275f7a45be9464efc1173084eaa30f866fe2e47d389406136d332ed4967ec56 \
    --hash=sha256:b650d30f370c2b724812bee08008be0c4163b163ddaec3f2546c1caf65f191db
charset-normalizer==3.4.1 ; python_version >= "3.10" and python_version < "4.0" \
    --hash=sha256:0167ddc8ab6508fe81860a57dd472b2ef4060e8d378f0cc555707126830f2537 \
    --hash=sha256:01732659ba9b5b873fc117534143e4feefecf3b2078b0a6a2e925271bb6f4cfa \
    --hash=sha256:01ad647cdd609225c5350561d084b42ddf732f4eeefe6e678765636791e78b9a \
    --hash=sha256:04432ad9479fa40ec0f387795ddad4437a2b50417c69fa275e212933519ff294 \
    --hash=sha256:0907f11d019260cdc3f94fbdb23ff9125f6b5d1039b76003b5b0ac9d6a6c9d5b \
    --hash=sha256:0924e81d3d5e70f8126529951dac65c1010cdf117bb75eb02dd12339b57749dd \
    --hash=sha256:09b26ae6b1abf0d27570633b2b078a2a20419c99d66fb2823173d73f188ce601 \
    --hash=sha256:09b5e6733cbd160dcc09589227187e242a30a49ca5cefa5a7edd3f9d19ed53fd \
    --hash=sha256:0af291f4fe114be0280cdd29d533696a77b5b49cfde5467176ecab32353395c4 \
    --hash=sha256:0f55e69f030f7163dffe9fd0752b32f070566451afe180f99dbeeb81f511ad8d \
    --hash=sha256:1a2bc9f351a75ef49d664206d51f8e5ede9da246602dc2d2726837620ea034b2 \
    --hash=sha256:22e14b5d70560b8dd51ec22863f370d1e595ac3d024cb8ad7d308b4cd95f8313 \
    --hash=sha256:234ac59ea147c59ee4da87a0c0f098e9c8d169f4dc2a159ef720f1a61bbe27cd \
    --hash=sha256:2369eea1ee4a7610a860d88f268eb39b95cb588acd7235e02fd5a5601773d4fa \
    --hash=sha256:237bdbe6159cff53b4f24f397d43c6336c6b0b42affbe857970cefbb620911c8 \
    --hash=sha256:28bf57629c75e810b6ae989f03c0828d64d6b26a5e205535585f96093e405ed1 \
    --hash=sha256:2967f74ad52c3b98de4c3b32e1a44e32975e008a9cd2a8cc8966d6a5218c5cb2 \
    --hash=sha256:2a75d49014d118e4198bcee5ee0a6f25856b29b12dbf7cd012791f8a6cc5c496 \
    --hash=sha256:2bdfe3ac2e1bbe5b59a1a63721eb3b95fc9b6817ae4a46debbb4e11f6232428d \
    --hash=sha256:2d074908e1aecee37a7635990b2c6d504cd4766c7bc9fc86d63f9c09af3fa11b \
    --hash=sha256:2fb9bd477fdea8684f78791a6de97a953c51831ee2981f8e4f583ff3b9d9687e \
    --hash=sha256:311f30128d7d333eebd7896965bfcfbd0065f1716ec92bd5638d7748eb6f936a \
    --hash=sha256:329ce159e82018d646c7ac45b01a430369d526569ec08516081727a20e9e4af4 \
    --hash=sha256:345b0426edd4e18138d6528aed636de7a9ed169b4aaf9d61a8c19e39d26838ca \
    --hash=sha256:363e2f92b0f0174b2f8238240a1a30142e3db7b957a5dd5689b0e75fb717cc78 \
    --hash=sha256:3a3bd0dcd373514dcec91c411ddb9632c0d7d92aed7093b8c3bbb6d69ca74408 \
    --hash=sha256:3bed14e9c89dcb10e8f3a29f9ccac4955aebe93c71ae803af79265c9ca5644c5 \
    --hash=sha256:44251f18cd68a75b56585dd00dae26183e102cd5e0f9f1466e6df5da2ed64ea3 \
    --hash=sha256:44ecbf16649486d4aebafeaa7ec4c9fed8b88101f4dd612dcaf65d5e815f837f \
    --hash=sha256:4532bff1b8421fd0a320463030c7520f56a79c9024a4e88f01c537316019005a \
    --hash=sha256:49402233c892a461407c512a19435d1ce275543138294f7ef013f0b63d5d3765 \
    --hash=sha256:4c0907b1928a36d5a998d72d64d8eaa7244989f7aaaf947500d3a800c83a3fd6 \
    --hash=sha256:4d86f7aff21ee58f26dcf5ae81a9addbd914115cdebcbb2217e4f0ed8982e146 \
    --hash=sha256:5777ee0881f9499ed0f71cc82cf873d9a0ca8af166dfa0af8ec4e675b7df48e6 \
    --hash=sha256:5df196eb874dae23dcfb968c83d4f8fdccb333330fe1fc278ac5ceeb101003a9 \
    --hash=sha256:619a609aa74ae43d90ed2e89bdd784765de0a25ca761b93e196d938b8fd1dbbd \
    --hash=sha256:6e27f48bcd0957c6d4cb9d6fa6b61d192d0b13d5ef563e5f2ae35feafc0d179c \
    --hash=sha256:6ff8a4a60c227ad87030d76e99cd1698345d4491638dfa6673027c48b3cd395f \
    --hash=sha256:73d94b58ec7fecbc7366247d3b0b10a21681004153238750bb67bd9012414545 \
    --hash=sha256:7461baadb4dc00fd9e0acbe254e3d7d2112e7f92ced2adc96e54ef6501c5f176 \
    --hash=sha256:75832c08354f595c760a804588b9357d34ec00ba1c940c15e31e96d902093770 \
    --hash=sha256:7709f51f5f7c853f0fb938bcd3bc59cdfdc5203635ffd18bf354f6967ea0f824 \
    --hash=sha256:78baa6d91634dfb69ec52a463534bc0df05dbd546209b79a3880a34487f4b84f \
    --hash=sha256:7974a0b5ecd505609e3b19742b60cee7aa2aa2fb3151bc917e6e2646d7667dcf \
    --hash=sha256:7a4f97a081603d2050bfaffdefa5b02a9ec823f8348a572e39032caa8404a487 \
    --hash=sha256:7b1bef6280950ee6c177b326508f86cad7ad4dff12454483b51d8b7d673a2c5d \
    --hash=sha256:7d053096f67cd1241601111b698f5cad775f97ab25d81567d3f59219b5f1adbd \
    --hash=sha256:804a4d582ba6e5b747c625bf1255e6b1507465494a40a2130978bda7b932c90b \
    --hash=sha256:807f52c1f798eef6cf26beb819eeb8819b1622ddfeef9d0977a8502d4db6d534 \
    --hash=sha256:80ed5e856eb7f30115aaf94e4a08114ccc8813e6ed1b5efa74f9f82e8509858f \
    --hash=sha256:8417cb1f36cc0bc7eaba8ccb0e04d55f0ee52df06df3ad55259b9a323555fc8b \
    --hash=sha256:8436c508b408b82d87dc5f62496973a1805cd46727c34440b0d29d8a2f50a6c9 \
    --hash=sha256:89149166622f4db9b4b6a449256291dc87a99ee53151c74cbd82a53c8c2f6ccd \
    --hash=sha256:8bfa33f4f2672964266e940dd22a195989ba31669bd84629f05fab3ef4e2d125 \
    --hash=sha256:8c60ca7339acd497a55b0ea5d506b2a2612afb2826560416f6894e8b5770d4a9 \
    --hash=sha256:91b36a978b5ae0ee86c394f5a54d6ef44db1de0815eb43de826d41d21e4af3de \
    --hash=sha256:955f8851919303c92343d2f66165294848d57e9bba6cf6e3625485a70a038d11 \
    --hash=sha256:97f68b8d6831127e4787ad15e6757232e14e12060bec17091b85eb1486b91d8d \
    --hash=sha256:9b23ca7ef998bc739bf6ffc077c2116917eabcc901f88da1b9856b210ef63f35 \
    --hash=sha256:9f0b8b1c6d84c8034a44893aba5e767bf9c7a211e313a9605d9c617d7083829f \
    --hash=sha256:aabfa34badd18f1da5ec1bc2715cadc8dca465868a4e73a0173466b688f29dda \
    --hash=sha256:ab36c8eb7e454e34e60eb55ca5d241a5d18b2c6244f6827a30e451c42410b5f7 \
    --hash=sha256:b010a7a4fd316c3c484d482922d13044979e78d1861f0e0650423144c616a46a \
    --hash=sha256:b1ac5992a838106edb89654e0aebfc24f5848ae2547d22c2c3f66454daa11971 \
    --hash=sha256:b7b2d86dd06bfc2ade3312a83a5c364c7ec2e3498f8734282c6c3d4b07b346b8 \
    --hash=sha256:b97e690a2118911e39b4042088092771b4ae3fc3aa86518f84b8cf6888dbdb41 \
    --hash=sha256:bc2722592d8998c870fa4e290c2eec2c1569b87fe58618e67d38b4665dfa680d \
    --hash=sha256:c0429126cf75e16c4f0ad00ee0eae4242dc652290f940152ca8c75c3a4b6ee8f \
    --hash=sha256:c30197aa96e8eed02200a83fba2657b4c3acd0f0aa4bdc9f6c1af8e8962e0757 \
    --hash=sha256:c4c3e6da02df6fa1410a7680bd3f63d4f710232d3139089536310d027950696a \
    --hash=sha256:c75cb2a3e389853835e84a2d8fb2b81a10645b503eca9bcb98df6b5a43eb8886 \
    --hash=sha256:c96836c97b1238e9c9e3fe90844c947d5afbf4f4c92762679acfe19927d81d77 \
    --hash=sha256:d7f50a1f8c450f3925cb367d011448c39239bb3eb4117c36a6d354794de4ce76 \
    --hash=sha256:d973f03c0cb71c5ed99037b870f2be986c3c05e63622c017ea9816881d2dd247 \
    --hash=sha256:d98b1668f06378c6dbefec3b92299716b931cd4e6061f3c875a71ced1780ab85 \
    --hash=sha256:d9c3cdf5390dcd29aa8056d13e8e99526cda0305acc038b96b30352aff5ff2bb \
    --hash=sha256:dad3e487649f498dd991eeb901125411559b22e8d7ab25d3aeb1af367df5efd7 \
    --hash=sha256:dccbe65bd2f7f7ec22c4ff99ed56faa1e9f785482b9bbd7c717e26fd723a1d1e \
    --hash=sha256:dd78cfcda14a1ef52584dbb008f7ac81c1328c0f58184bf9a84c49c605002da6 \
    --hash=sha256:e218488cd232553829be0664c2292d3af2eeeb94b32bea483cf79ac6a694e037 \
    --hash=sha256:e358e64305fe12299a08e08978f51fc21fac060dcfcddd95453eabe5b93ed0e1 \
    --hash=sha256:ea0d8d539afa5eb2728aa1932a988a9a7af94f18582ffae4bc10b3fbdad0626e \
    --hash=sha256:eab677309cdb30d047996b36d34caeda1dc91149e4fdca0b1a039b3f79d9a807 \
    --hash=sha256:eb8178fe3dba6450a3e024e95ac49ed3400e506fd4e9e5c32d30adda88cbd407 \
    --hash=sha256:ecddf25bee22fe4fe3737a399d0d177d72bc22be6913acfab364b40bce1ba83c \
    --hash=sha256:eea6ee1db730b3483adf394ea72f808b6e18cf3cb6454b4d86e04fa8c4327a12 \
    --hash=sha256:f08ff5e948271dc7e18a35641d2f11a4cd8dfd5634f55228b691e62b37125eb3 \
    --hash=sha256:f30bf9fd9be89ecb2360c7d94a711f00c09b976258846efe40db3d05828e8089 \
    --hash=sha256:fa88b843d6e211393a37219e6a1c1df99d35e8fd90446f1118f4216e307e48cd \
    --hash=sha256:fc54db6c8593ef7d4b2a331b58653356cf04f67c960f584edb7c3d8c97e8f39e \
    --hash=sha256:fd4ec41f914fa74ad1b8304bbc634b3de73d2a0889bd32076342a573e0779e00 \
    --hash=sha256:ffc9202a29ab3920fa812879e95a9e78b2465fd10be7fcbd042899695d75e616
click==8.1.8 ; python_version >= "3.10" and python_version < "4.0" \
    --hash=sha256:63c132bbbed01578a06712a2d1f497bb62d9c1c0d329b7903a866228027263b2 \
    --hash=sha256:ed53c9d8990d83c2a27deae68e4ee337473f6330c040a31d4225c9574d16096a
colorama==0.4.6 ; python_version >= "3.10" and python_version < "4.0" \
    --hash=sha256:08695f5cb7ed6e0531a20572697297273c47b8cae5a63ffc6d6ed5c201be6e44 \
    --hash=sha256:4f1d9991f5acc0ca119f9d443620b77f9d6b33703e51011c16baf57afb285fc6
cyclic==1.0.0 ; python_version >= "3.10" and python_version < "4.0" \
    --hash=sha256:32d8181d7698f426bce6f14f4c3921ef95b6a84af9f96192b59beb05bc00c3ed \
    --hash=sha256:ecddd56cb831ee3e6b79f61ecb0ad71caee606c507136867782911aa01c3e5eb
ghp-import==2.1.0 ; python_version >= "3.10" and python_version < "4.0" \
    --hash=sha256:8337dd7b50877f163d4c0289bc1f1c7f127550241988d568c1db512c4324a619 \
    --hash=sha256:9c535c4c61193c2df8871222567d7fd7e5014d835f97dc7b7439069e2413d343
griffe==1.5.5 ; python_version >= "3.10" and python_version < "4.0" \
    --hash=sha256:2761b1e8876c6f1f9ab1af274df93ea6bbadd65090de5f38f4cb5cc84897c7dd \
    --hash=sha256:35ee5b38b93d6a839098aad0f92207e6ad6b70c3e8866c08ca669275b8cba585
idna==3.10 ; python_version >= "3.10" and python_version < "4.0" \
    --hash=sha256:12f65c9b470abda6dc35cf8e63cc574b1c52b11df2c86030af0ac09b01b13ea9 \
    --hash=sha256:946d195a0d259cbba61165e88e65941f16e9b36ea6ddb97f00452bae8b1287d3
jinja2==3.1.5 ; python_version >= "3.10" and python_version < "4.0" \
    --hash=sha256:8fefff8dc3034e27bb80d67c671eb8a9bc424c0ef4c0826edbff304cceff43bb \
    --hash=sha256:aba0f4dc9ed8013c424088f68a5c226f7d6097ed89b246d7749c2ec4175c6adb
markdown==3.7 ; python_version >= "3.10" and python_version < "4.0" \
    --hash=sha256:2ae2471477cfd02dbbf038d5d9bc226d40def84b4fe2986e49b59b6b472bbed2 \
    --hash=sha256:7eb6df5690b81a1d7942992c97fad2938e956e79df20cbc6186e9c3a77b1c803
markupsafe==3.0.2 ; python_version >= "3.10" and python_version < "4.0" \
    --hash=sha256:0bff5e0ae4ef2e1ae4fdf2dfd5b76c75e5c2fa4132d05fc1b0dabcd20c7e28c4 \
    --hash=sha256:0f4ca02bea9a23221c0182836703cbf8930c5e9454bacce27e767509fa286a30 \
    --hash=sha256:1225beacc926f536dc82e45f8a4d68502949dc67eea90eab715dea3a21c1b5f0 \
    --hash=sha256:131a3c7689c85f5ad20f9f6fb1b866f402c445b220c19fe4308c0b147ccd2ad9 \
    --hash=sha256:15ab75ef81add55874e7ab7055e9c397312385bd9ced94920f2802310c930396 \
    --hash=sha256:1a9d3f5f0901fdec14d8d2f66ef7d035f2157240a433441719ac9a3fba440b13 \
    --hash=sha256:1c99d261bd2d5f6b59325c92c73df481e05e57f19837bdca8413b9eac4bd8028 \
    --hash=sha256:1e084f686b92e5b83186b07e8a17fc09e38fff551f3602b249881fec658d3eca \
    --hash=sha256:2181e67807fc2fa785d0592dc2d6206c019b9502410671cc905d132a92866557 \
    --hash=sha256:2cb8438c3cbb25e220c2ab33bb226559e7afb3baec11c4f218ffa7308603c832 \
    --hash=sha256:3169b1eefae027567d1ce6ee7cae382c57fe26e82775f460f0b2778beaad66c0 \
    --hash=sha256:3809ede931876f5b2ec92eef964286840ed3540dadf803dd570c3b7e13141a3b \
    --hash=sha256:38a9ef736c01fccdd6600705b09dc574584b89bea478200c5fbf112a6b0d5579 \
    --hash=sha256:3d79d162e7be8f996986c064d1c7c817f6df3a77fe3d6859f6f9e7be4b8c213a \
    --hash=sha256:444dcda765c8a838eaae23112db52f1efaf750daddb2d9ca300bcae1039adc5c \
    --hash=sha256:48032821bbdf20f5799ff537c7ac3d1fba0ba032cfc06194faffa8cda8b560ff \
    --hash=sha256:4aa4e5faecf353ed117801a068ebab7b7e09ffb6e1d5e412dc852e0da018126c \
    --hash=sha256:52305740fe773d09cffb16f8ed0427942901f00adedac82ec8b67752f58a1b22 \
    --hash=sha256:569511d3b58c8791ab4c2e1285575265991e6d8f8700c7be0e88f86cb0672094 \
    --hash=sha256:57cb5a3cf367aeb1d316576250f65edec5bb3be939e9247ae594b4bcbc317dfb \
    --hash=sha256:5b02fb34468b6aaa40dfc198d813a641e3a63b98c2b05a16b9f80b7ec314185e \
    --hash=sha256:6381026f158fdb7c72a168278597a5e3a5222e83ea18f543112b2662a9b699c5 \
    --hash=sha256:6af100e168aa82a50e186c82875a5893c5597a0c1ccdb0d8b40240b1f28b969a \
    --hash=sha256:6c89876f41da747c8d3677a2b540fb32ef5715f97b66eeb0c6b66f5e3ef6f59d \
    --hash=sha256:6e296a513ca3d94054c2c881cc913116e90fd030ad1c656b3869762b754f5f8a \
    --hash=sha256:70a87b411535ccad5ef2f1df5136506a10775d267e197e4cf531ced10537bd6b \
    --hash=sha256:7e94c425039cde14257288fd61dcfb01963e658efbc0ff54f5306b06054700f8 \
    --hash=sha256:846ade7b71e3536c4e56b386c2a47adf5741d2d8b94ec9dc3e92e5e1ee1e2225 \
    --hash=sha256:88416bd1e65dcea10bc7569faacb2c20ce071dd1f87539ca2ab364bf6231393c \
    --hash=sha256:88b49a3b9ff31e19998750c38e030fc7bb937398b1f78cfa599aaef92d693144 \
    --hash=sha256:8c4e8c3ce11e1f92f6536ff07154f9d49677ebaaafc32db9db4620bc11ed480f \
    --hash=sha256:8e06879fc22a25ca47312fbe7c8264eb0b662f6db27cb2d3bbbc74b1df4b9b87 \
    --hash=sha256:9025b4018f3a1314059769c7bf15441064b2207cb3f065e6ea1e7359cb46db9d \
    --hash=sha256:93335ca3812df2f366e80509ae119189886b0f3c2b81325d39efdb84a1e2ae93 \
    --hash=sha256:9778bd8ab0a994ebf6f84c2b949e65736d5575320a17ae8984a77fab08db94cf \
    --hash=sha256:9e2d922824181480953426608b81967de705c3cef4d1af983af849d7bd619158 \
    --hash=sha256:a123e330ef0853c6e822384873bef7507557d8e4a082961e1defa947aa59ba84 \
    --hash=sha256:a904af0a6162c73e3edcb969eeeb53a63ceeb5d8cf642fade7d39e7963a22ddb \
    --hash=sha256:ad10d3ded218f1039f11a75f8091880239651b52e9bb592ca27de44eed242a48 \
    --hash=sha256:b424c77b206d63d500bcb69fa55ed8d0e6a3774056bdc4839fc9298a7edca171 \
    --hash=sha256:b5a6b3ada725cea8a5e634536b1b01c30bcdcd7f9c6fff4151548d5bf6b3a36c \
    --hash=sha256:ba8062ed2cf21c07a9e295d5b8a2a5ce678b913b45fdf68c32d95d6c1291e0b6 \
    --hash=sha256:ba9527cdd4c926ed0760bc301f6728ef34d841f405abf9d4f959c478421e4efd \
    --hash=sha256:bbcb445fa71794da8f178f0f6d66789a28d7319071af7a496d4d507ed566270d \
    --hash=sha256:bcf3e58998965654fdaff38e58584d8937aa3096ab5354d493c77d1fdd66d7a1 \
    --hash=sha256:c0ef13eaeee5b615fb07c9a7dadb38eac06a0608b41570d8ade51c56539e509d \
    --hash=sha256:cabc348d87e913db6ab4aa100f01b08f481097838bdddf7c7a84b7575b7309ca \
    --hash=sha256:cdb82a876c47801bb54a690c5ae105a46b392ac6099881cdfb9f6e95e4014c6a \
    --hash=sha256:cfad01eed2c2e0c01fd0ecd2ef42c492f7f93902e39a42fc9ee1692961443a29 \
    --hash=sha256:d16a81a06776313e817c951135cf7340a3e91e8c1ff2fac444cfd75fffa04afe \
    --hash=sha256:d8213e09c917a951de9d09ecee036d5c7d36cb6cb7dbaece4c71a60d79fb9798 \
    --hash=sha256:e07c3764494e3776c602c1e78e298937c3315ccc9043ead7e685b7f2b8d47b3c \
    --hash=sha256:e17c96c14e19278594aa4841ec148115f9c7615a47382ecb6b82bd8fea3ab0c8 \
    --hash=sha256:e444a31f8db13eb18ada366ab3cf45fd4b31e4db1236a4448f68778c1d1a5a2f \
    --hash=sha256:e6a2a455bd412959b57a172ce6328d2dd1f01cb2135efda2e4576e8a23fa3b0f \
    --hash=sha256:eaa0a10b7f72326f1372a713e73c3f739b524b3af41feb43e4921cb529f5929a \
    --hash=sha256:eb7972a85c54febfb25b5c4b4f3af4dcc731994c7da0d8a0b4a6eb0640e1d178 \
    --hash=sha256:ee55d3edf80167e48ea11a923c7386f4669df67d7994554387f84e7d8b0a2bf0 \
    --hash=sha256:f3818cb119498c0678015754eba762e0d61e5b52d34c8b13d770f0719f7b1d79 \
    --hash=sha256:f8b3d067f2e40fe93e1ccdd6b2e1d16c43140e76f02fb1319a05cf2b79d99430 \
    --hash=sha256:fcabf5ff6eea076f859677f5f0b6b5c1a51e70a376b0579e0eadef8db48c6b50
mdx-include==1.4.2 ; python_version >= "3.10" and python_version < "4.0" \
    --hash=sha256:992f9fbc492b5cf43f7d8cb4b90b52a4e4c5fdd7fd04570290a83eea5c84f297 \
    --hash=sha256:cfbeadd59985f27a9b70cb7ab0a3d209892fe1bb1aa342df055e0b135b3c9f34
mergedeep==1.3.4 ; python_version >= "3.10" and python_version < "4.0" \
    --hash=sha256:0096d52e9dad9939c3d975a774666af186eda617e6ca84df4c94dec30004f2a8 \
    --hash=sha256:70775750742b25c0d8f36c55aed03d24c3384d17c951b3175d898bd778ef0307
mkdocs-autorefs==1.3.0 ; python_version >= "3.10" and python_version < "4.0" \
    --hash=sha256:6867764c099ace9025d6ac24fd07b85a98335fbd30107ef01053697c8f46db61 \
    --hash=sha256:d180f9778a04e78b7134e31418f238bba56f56d6a8af97873946ff661befffb3
mkdocs-get-deps==0.2.0 ; python_version >= "3.10" and python_version < "4.0" \
    --hash=sha256:162b3d129c7fad9b19abfdcb9c1458a651628e4b1dea628ac68790fb3061c60c \
    --hash=sha256:2bf11d0b133e77a0dd036abeeb06dec8775e46efa526dc70667d8863eefc6134
mkdocs-material-extensions==1.3.1 ; python_version >= "3.10" and python_version < "4.0" \
    --hash=sha256:10c9511cea88f568257f960358a467d12b970e1f7b2c0e5fb2bb48cab1928443 \
    --hash=sha256:adff8b62700b25cb77b53358dad940f3ef973dd6db797907c49e3c2ef3ab4e31
mkdocs-material==9.5.50 ; python_version >= "3.10" and python_version < "4.0" \
    --hash=sha256:ae5fe16f3d7c9ccd05bb6916a7da7420cf99a9ce5e33debd9d40403a090d5825 \
    --hash=sha256:f24100f234741f4d423a9d672a909d859668a4f404796be3cf035f10d6050385
mkdocs==1.6.1 ; python_version >= "3.10" and python_version < "4.0" \
    --hash=sha256:7b432f01d928c084353ab39c57282f29f92136665bdd6abf7c1ec8d822ef86f2 \
    --hash=sha256:db91759624d1647f3f34aa0c3f327dd2601beae39a366d6e064c03468d35c20e
mkdocstrings-python==1.13.0 ; python_version >= "3.10" and python_version < "4.0" \
    --hash=sha256:2dbd5757e8375b9720e81db16f52f1856bf59905428fd7ef88005d1370e2f64c \
    --hash=sha256:b88bbb207bab4086434743849f8e796788b373bd32e7bfefbf8560ac45d88f97
mkdocstrings==0.27.0 ; python_version >= "3.10" and python_version < "4.0" \
    --hash=sha256:16adca6d6b0a1f9e0c07ff0b02ced8e16f228a9d65a37c063ec4c14d7b76a657 \
    --hash=sha256:6ceaa7ea830770959b55a16203ac63da24badd71325b96af950e59fd37366332
mkdocstrings[python]==0.27.0 ; python_version >= "3.10" and python_version < "4.0" \
    --hash=sha256:16adca6d6b0a1f9e0c07ff0b02ced8e16f228a9d65a37c063ec4c14d7b76a657 \
    --hash=sha256:6ceaa7ea830770959b55a16203ac63da24badd71325b96af950e59fd37366332
packaging==24.2 ; python_version >= "3.10" and python_version < "4.0" \
    --hash=sha256:09abb1bccd265c01f4a3aa3f7a7db064b36514d2cba19a2f694fe6150451a759 \
    --hash=sha256:c228a6dc5e932d346bc5739379109d49e8853dd8223571c7c5b55260edc0b97f
paginate==0.5.7 ; python_version >= "3.10" and python_version < "4.0" \
    --hash=sha256:22bd083ab41e1a8b4f3690544afb2c60c25e5c9a63a30fa2f483f6c60c8e5945 \
    --hash=sha256:b885e2af73abcf01d9559fd5216b57ef722f8c42affbb63942377668e35c7591
pathspec==0.12.1 ; python_version >= "3.10" and python_version < "4.0" \
    --hash=sha256:a0d503e138a4c123b27490a4f7beda6a01c6f288df0e4a8b79c7eb0dc7b4cc08 \
    --hash=sha256:a482d51503a1ab33b1c67a6c3813a26953dbdc71c31dacaef9a838c4e29f5712
platformdirs==4.3.6 ; python_version >= "3.10" and python_version < "4.0" \
    --hash=sha256:357fb2acbc885b0419afd3ce3ed34564c13c9b95c89360cd9563f73aa5e2b907 \
    --hash=sha256:73e575e1408ab8103900836b97580d5307456908a03e92031bab39e4554cc3fb
pygments==2.19.1 ; python_version >= "3.10" and python_version < "4.0" \
    --hash=sha256:61c16d2a8576dc0649d9f39e089b5f02bcd27fba10d8fb4dcc28173f7a45151f \
    --hash=sha256:9ea1544ad55cecf4b8242fab6dd35a93bbce657034b0611ee383099054ab6d8c
pymdown-extensions==10.14.1 ; python_version >= "3.10" and python_version < "4.0" \
    --hash=sha256:637951cbfbe9874ba28134fb3ce4b8bcadd6aca89ac4998ec29dcbafd554ae08 \
    --hash=sha256:b65801996a0cd4f42a3110810c306c45b7313c09b0610a6f773730f2a9e3c96b
python-dateutil==2.9.0.post0 ; python_version >= "3.10" and python_version < "4.0" \
    --hash=sha256:37dd54208da7e1cd875388217d5e00ebd4179249f90fb72437e91a35459a0ad3 \
    --hash=sha256:a8b2bc7bffae282281c8140a97d3aa9c14da0b136dfe83f850eea9a5f7470427
pyyaml-env-tag==0.1 ; python_version >= "3.10" and python_version < "4.0" \
    --hash=sha256:70092675bda14fdec33b31ba77e7543de9ddc88f2e5b99160396572d11525bdb \
    --hash=sha256:af31106dec8a4d68c60207c1886031cbf839b68aa7abccdb19868200532c2069
pyyaml==6.0.2 ; python_version >= "3.10" and python_version < "4.0" \
    --hash=sha256:01179a4a8559ab5de078078f37e5c1a30d76bb88519906844fd7bdea1b7729ff \
    --hash=sha256:0833f8694549e586547b576dcfaba4a6b55b9e96098b36cdc7ebefe667dfed48 \
    --hash=sha256:0a9a2848a5b7feac301353437eb7d5957887edbf81d56e903999a75a3d743086 \
    --hash=sha256:0b69e4ce7a131fe56b7e4d770c67429700908fc0752af059838b1cfb41960e4e \
    --hash=sha256:0ffe8360bab4910ef1b9e87fb812d8bc0a308b0d0eef8c8f44e0254ab3b07133 \
    --hash=sha256:11d8f3dd2b9c1207dcaf2ee0bbbfd5991f571186ec9cc78427ba5bd32afae4b5 \
    --hash=sha256:17e311b6c678207928d649faa7cb0d7b4c26a0ba73d41e99c4fff6b6c3276484 \
    --hash=sha256:1e2120ef853f59c7419231f3bf4e7021f1b936f6ebd222406c3b60212205d2ee \
    --hash=sha256:1f71ea527786de97d1a0cc0eacd1defc0985dcf6b3f17bb77dcfc8c34bec4dc5 \
    --hash=sha256:23502f431948090f597378482b4812b0caae32c22213aecf3b55325e049a6c68 \
    --hash=sha256:24471b829b3bf607e04e88d79542a9d48bb037c2267d7927a874e6c205ca7e9a \
    --hash=sha256:29717114e51c84ddfba879543fb232a6ed60086602313ca38cce623c1d62cfbf \
    --hash=sha256:2e99c6826ffa974fe6e27cdb5ed0021786b03fc98e5ee3c5bfe1fd5015f42b99 \
    --hash=sha256:39693e1f8320ae4f43943590b49779ffb98acb81f788220ea932a6b6c51004d8 \
    --hash=sha256:3ad2a3decf9aaba3d29c8f537ac4b243e36bef957511b4766cb0057d32b0be85 \
    --hash=sha256:3b1fdb9dc17f5a7677423d508ab4f243a726dea51fa5e70992e59a7411c89d19 \
    --hash=sha256:41e4e3953a79407c794916fa277a82531dd93aad34e29c2a514c2c0c5fe971cc \
    --hash=sha256:43fa96a3ca0d6b1812e01ced1044a003533c47f6ee8aca31724f78e93ccc089a \
    --hash=sha256:50187695423ffe49e2deacb8cd10510bc361faac997de9efef88badc3bb9e2d1 \
    --hash=sha256:5ac9328ec4831237bec75defaf839f7d4564be1e6b25ac710bd1a96321cc8317 \
    --hash=sha256:5d225db5a45f21e78dd9358e58a98702a0302f2659a3c6cd320564b75b86f47c \
    --hash=sha256:6395c297d42274772abc367baaa79683958044e5d3835486c16da75d2a694631 \
    --hash=sha256:688ba32a1cffef67fd2e9398a2efebaea461578b0923624778664cc1c914db5d \
    --hash=sha256:68ccc6023a3400877818152ad9a1033e3db8625d899c72eacb5a668902e4d652 \
    --hash=sha256:70b189594dbe54f75ab3a1acec5f1e3faa7e8cf2f1e08d9b561cb41b845f69d5 \
    --hash=sha256:797b4f722ffa07cc8d62053e4cff1486fa6dc094105d13fea7b1de7d8bf71c9e \
    --hash=sha256:7c36280e6fb8385e520936c3cb3b8042851904eba0e58d277dca80a5cfed590b \
    --hash=sha256:7e7401d0de89a9a855c839bc697c079a4af81cf878373abd7dc625847d25cbd8 \
    --hash=sha256:80bab7bfc629882493af4aa31a4cfa43a4c57c83813253626916b8c7ada83476 \
    --hash=sha256:82d09873e40955485746739bcb8b4586983670466c23382c19cffecbf1fd8706 \
    --hash=sha256:8388ee1976c416731879ac16da0aff3f63b286ffdd57cdeb95f3f2e085687563 \
    --hash=sha256:8824b5a04a04a047e72eea5cec3bc266db09e35de6bdfe34c9436ac5ee27d237 \
    --hash=sha256:8b9c7197f7cb2738065c481a0461e50ad02f18c78cd75775628afb4d7137fb3b \
    --hash=sha256:9056c1ecd25795207ad294bcf39f2db3d845767be0ea6e6a34d856f006006083 \
    --hash=sha256:936d68689298c36b53b29f23c6dbb74de12b4ac12ca6cfe0e047bedceea56180 \
    --hash=sha256:9b22676e8097e9e22e36d6b7bda33190d0d400f345f23d4065d48f4ca7ae0425 \
    --hash=sha256:a4d3091415f010369ae4ed1fc6b79def9416358877534caf6a0fdd2146c87a3e \
    --hash=sha256:a8786accb172bd8afb8be14490a16625cbc387036876ab6ba70912730faf8e1f \
    --hash=sha256:a9f8c2e67970f13b16084e04f134610fd1d374bf477b17ec1599185cf611d725 \
    --hash=sha256:bc2fa7c6b47d6bc618dd7fb02ef6fdedb1090ec036abab80d4681424b84c1183 \
    --hash=sha256:c70c95198c015b85feafc136515252a261a84561b7b1d51e3384e0655ddf25ab \
    --hash=sha256:cc1c1159b3d456576af7a3e4d1ba7e6924cb39de8f67111c735f6fc832082774 \
    --hash=sha256:ce826d6ef20b1bc864f0a68340c8b3287705cae2f8b4b1d932177dcc76721725 \
    --hash=sha256:d584d9ec91ad65861cc08d42e834324ef890a082e591037abe114850ff7bbc3e \
    --hash=sha256:d7fded462629cfa4b685c5416b949ebad6cec74af5e2d42905d41e257e0869f5 \
    --hash=sha256:d84a1718ee396f54f3a086ea0a66d8e552b2ab2017ef8b420e92edbc841c352d \
    --hash=sha256:d8e03406cac8513435335dbab54c0d385e4a49e4945d2909a581c83647ca0290 \
    --hash=sha256:e10ce637b18caea04431ce14fabcf5c64a1c61ec9c56b071a4b7ca131ca52d44 \
    --hash=sha256:ec031d5d2feb36d1d1a24380e4db6d43695f3748343d99434e6f5f9156aaa2ed \
    --hash=sha256:ef6107725bd54b262d6dedcc2af448a266975032bc85ef0172c5f059da6325b4 \
    --hash=sha256:efdca5630322a10774e8e98e1af481aad470dd62c3170801852d752aa7a783ba \
    --hash=sha256:f753120cb8181e736c57ef7636e83f31b9c0d1722c516f7e86cf15b7aa57ff12 \
    --hash=sha256:ff3824dc5261f50c9b0dfb3be22b4567a6f938ccce4587b38952d85fd9e9afe4
rcslice==1.1.0 ; python_version >= "3.10" and python_version < "4.0" \
    --hash=sha256:1b12fc0c0ca452e8a9fd2b56ac008162f19e250906a4290a7e7a98be3200c2a6 \
    --hash=sha256:a2ce70a60690eb63e52b722e046b334c3aaec5e900b28578f529878782ee5c6e
regex==2024.11.6 ; python_version >= "3.10" and python_version < "4.0" \
    --hash=sha256:02a02d2bb04fec86ad61f3ea7f49c015a0681bf76abb9857f945d26159d2968c \
    --hash=sha256:02e28184be537f0e75c1f9b2f8847dc51e08e6e171c6bde130b2687e0c33cf60 \
    --hash=sha256:040df6fe1a5504eb0f04f048e6d09cd7c7110fef851d7c567a6b6e09942feb7d \
    --hash=sha256:068376da5a7e4da51968ce4c122a7cd31afaaec4fccc7856c92f63876e57b51d \
    --hash=sha256:06eb1be98df10e81ebaded73fcd51989dcf534e3c753466e4b60c4697a003b67 \
    --hash=sha256:072623554418a9911446278f16ecb398fb3b540147a7828c06e2011fa531e773 \
    --hash=sha256:086a27a0b4ca227941700e0b31425e7a28ef1ae8e5e05a33826e17e47fbfdba0 \
    --hash=sha256:08986dce1339bc932923e7d1232ce9881499a0e02925f7402fb7c982515419ef \
    --hash=sha256:0a86e7eeca091c09e021db8eb72d54751e527fa47b8d5787caf96d9831bd02ad \
    --hash=sha256:0c32f75920cf99fe6b6c539c399a4a128452eaf1af27f39bce8909c9a3fd8cbe \
    --hash=sha256:0d7f453dca13f40a02b79636a339c5b62b670141e63efd511d3f8f73fba162b3 \
    --hash=sha256:1062b39a0a2b75a9c694f7a08e7183a80c63c0d62b301418ffd9c35f55aaa114 \
    --hash=sha256:13291b39131e2d002a7940fb176e120bec5145f3aeb7621be6534e46251912c4 \
    --hash=sha256:149f5008d286636e48cd0b1dd65018548944e495b0265b45e1bffecce1ef7f39 \
    --hash=sha256:164d8b7b3b4bcb2068b97428060b2a53be050085ef94eca7f240e7947f1b080e \
    --hash=sha256:167ed4852351d8a750da48712c3930b031f6efdaa0f22fa1933716bfcd6bf4a3 \
    --hash=sha256:1c4de13f06a0d54fa0d5ab1b7138bfa0d883220965a29616e3ea61b35d5f5fc7 \
    --hash=sha256:202eb32e89f60fc147a41e55cb086db2a3f8cb82f9a9a88440dcfc5d37faae8d \
    --hash=sha256:220902c3c5cc6af55d4fe19ead504de80eb91f786dc102fbd74894b1551f095e \
    --hash=sha256:2b3361af3198667e99927da8b84c1b010752fa4b1115ee30beaa332cabc3ef1a \
    --hash=sha256:2c89a8cc122b25ce6945f0423dc1352cb9593c68abd19223eebbd4e56612c5b7 \
    --hash=sha256:2d548dafee61f06ebdb584080621f3e0c23fff312f0de1afc776e2a2ba99a74f \
    --hash=sha256:2e34b51b650b23ed3354b5a07aab37034d9f923db2a40519139af34f485f77d0 \
    --hash=sha256:32f9a4c643baad4efa81d549c2aadefaeba12249b2adc5af541759237eee1c54 \
    --hash=sha256:3a51ccc315653ba012774efca4f23d1d2a8a8f278a6072e29c7147eee7da446b \
    --hash=sha256:3cde6e9f2580eb1665965ce9bf17ff4952f34f5b126beb509fee8f4e994f143c \
    --hash=sha256:40291b1b89ca6ad8d3f2b82782cc33807f1406cf68c8d440861da6304d8ffbbd \
    --hash=sha256:41758407fc32d5c3c5de163888068cfee69cb4c2be844e7ac517a52770f9af57 \
    --hash=sha256:4181b814e56078e9b00427ca358ec44333765f5ca1b45597ec7446d3a1ef6e34 \
    --hash=sha256:4f51f88c126370dcec4908576c5a627220da6c09d0bff31cfa89f2523843316d \
    --hash=sha256:50153825ee016b91549962f970d6a4442fa106832e14c918acd1c8e479916c4f \
    --hash=sha256:5056b185ca113c88e18223183aa1a50e66507769c9640a6ff75859619d73957b \
    --hash=sha256:5071b2093e793357c9d8b2929dfc13ac5f0a6c650559503bb81189d0a3814519 \
    --hash=sha256:525eab0b789891ac3be914d36893bdf972d483fe66551f79d3e27146191a37d4 \
    --hash=sha256:52fb28f528778f184f870b7cf8f225f5eef0a8f6e3778529bdd40c7b3920796a \
    --hash=sha256:5478c6962ad548b54a591778e93cd7c456a7a29f8eca9c49e4f9a806dcc5d638 \
    --hash=sha256:5670bce7b200273eee1840ef307bfa07cda90b38ae56e9a6ebcc9f50da9c469b \
    --hash=sha256:5704e174f8ccab2026bd2f1ab6c510345ae8eac818b613d7d73e785f1310f839 \
    --hash=sha256:59dfe1ed21aea057a65c6b586afd2a945de04fc7db3de0a6e3ed5397ad491b07 \
    --hash=sha256:5e7e351589da0850c125f1600a4c4ba3c722efefe16b297de54300f08d734fbf \
    --hash=sha256:63b13cfd72e9601125027202cad74995ab26921d8cd935c25f09c630436348ff \
    --hash=sha256:658f90550f38270639e83ce492f27d2c8d2cd63805c65a13a14d36ca126753f0 \
    --hash=sha256:684d7a212682996d21ca12ef3c17353c021fe9de6049e19ac8481ec35574a70f \
    --hash=sha256:69ab78f848845569401469da20df3e081e6b5a11cb086de3eed1d48f5ed57c95 \
    --hash=sha256:6f44ec28b1f858c98d3036ad5d7d0bfc568bdd7a74f9c24e25f41ef1ebfd81a4 \
    --hash=sha256:70b7fa6606c2881c1db9479b0eaa11ed5dfa11c8d60a474ff0e095099f39d98e \
    --hash=sha256:764e71f22ab3b305e7f4c21f1a97e1526a25ebdd22513e251cf376760213da13 \
    --hash=sha256:7ab159b063c52a0333c884e4679f8d7a85112ee3078fe3d9004b2dd875585519 \
    --hash=sha256:805e6b60c54bf766b251e94526ebad60b7de0c70f70a4e6210ee2891acb70bf2 \
    --hash=sha256:8447d2d39b5abe381419319f942de20b7ecd60ce86f16a23b0698f22e1b70008 \
    --hash=sha256:86fddba590aad9208e2fa8b43b4c098bb0ec74f15718bb6a704e3c63e2cef3e9 \
    --hash=sha256:89d75e7293d2b3e674db7d4d9b1bee7f8f3d1609428e293771d1a962617150cc \
    --hash=sha256:93c0b12d3d3bc25af4ebbf38f9ee780a487e8bf6954c115b9f015822d3bb8e48 \
    --hash=sha256:94d87b689cdd831934fa3ce16cc15cd65748e6d689f5d2b8f4f4df2065c9fa20 \
    --hash=sha256:9714398225f299aa85267fd222f7142fcb5c769e73d7733344efc46f2ef5cf89 \
    --hash=sha256:982e6d21414e78e1f51cf595d7f321dcd14de1f2881c5dc6a6e23bbbbd68435e \
    --hash=sha256:997d6a487ff00807ba810e0f8332c18b4eb8d29463cfb7c820dc4b6e7562d0cf \
    --hash=sha256:a03e02f48cd1abbd9f3b7e3586d97c8f7a9721c436f51a5245b3b9483044480b \
    --hash=sha256:a36fdf2af13c2b14738f6e973aba563623cb77d753bbbd8d414d18bfaa3105dd \
    --hash=sha256:a6ba92c0bcdf96cbf43a12c717eae4bc98325ca3730f6b130ffa2e3c3c723d84 \
    --hash=sha256:a7c2155f790e2fb448faed6dd241386719802296ec588a8b9051c1f5c481bc29 \
    --hash=sha256:a93c194e2df18f7d264092dc8539b8ffb86b45b899ab976aa15d48214138e81b \
    --hash=sha256:abfa5080c374a76a251ba60683242bc17eeb2c9818d0d30117b4486be10c59d3 \
    --hash=sha256:ac10f2c4184420d881a3475fb2c6f4d95d53a8d50209a2500723d831036f7c45 \
    --hash=sha256:ad182d02e40de7459b73155deb8996bbd8e96852267879396fb274e8700190e3 \
    --hash=sha256:b2837718570f95dd41675328e111345f9b7095d821bac435aac173ac80b19983 \
    --hash=sha256:b489578720afb782f6ccf2840920f3a32e31ba28a4b162e13900c3e6bd3f930e \
    --hash=sha256:b583904576650166b3d920d2bcce13971f6f9e9a396c673187f49811b2769dc7 \
    --hash=sha256:b85c2530be953a890eaffde05485238f07029600e8f098cdf1848d414a8b45e4 \
    --hash=sha256:b97c1e0bd37c5cd7902e65f410779d39eeda155800b65fc4d04cc432efa9bc6e \
    --hash=sha256:ba9b72e5643641b7d41fa1f6d5abda2c9a263ae835b917348fc3c928182ad467 \
    --hash=sha256:bb26437975da7dc36b7efad18aa9dd4ea569d2357ae6b783bf1118dabd9ea577 \
    --hash=sha256:bb8f74f2f10dbf13a0be8de623ba4f9491faf58c24064f32b65679b021ed0001 \
    --hash=sha256:bde01f35767c4a7899b7eb6e823b125a64de314a8ee9791367c9a34d56af18d0 \
    --hash=sha256:bec9931dfb61ddd8ef2ebc05646293812cb6b16b60cf7c9511a832b6f1854b55 \
    --hash=sha256:c36f9b6f5f8649bb251a5f3f66564438977b7ef8386a52460ae77e6070d309d9 \
    --hash=sha256:cdf58d0e516ee426a48f7b2c03a332a4114420716d55769ff7108c37a09951bf \
    --hash=sha256:d1cee317bfc014c2419a76bcc87f071405e3966da434e03e13beb45f8aced1a6 \
    --hash=sha256:d22326fcdef5e08c154280b71163ced384b428343ae16a5ab2b3354aed12436e \
    --hash=sha256:d3660c82f209655a06b587d55e723f0b813d3a7db2e32e5e7dc64ac2a9e86fde \
    --hash=sha256:da8f5fc57d1933de22a9e23eec290a0d8a5927a5370d24bda9a6abe50683fe62 \
    --hash=sha256:df951c5f4a1b1910f1a99ff42c473ff60f8225baa1cdd3539fe2819d9543e9df \
    --hash=sha256:e5364a4502efca094731680e80009632ad6624084aff9a23ce8c8c6820de3e51 \
    --hash=sha256:ea1bfda2f7162605f6e8178223576856b3d791109f15ea99a9f95c16a7636fb5 \
    --hash=sha256:f02f93b92358ee3f78660e43b4b0091229260c5d5c408d17d60bf26b6c900e86 \
    --hash=sha256:f056bf21105c2515c32372bbc057f43eb02aae2fda61052e2f7622c801f0b4e2 \
    --hash=sha256:f1ac758ef6aebfc8943560194e9fd0fa18bcb34d89fd8bd2af18183afd8da3a2 \
    --hash=sha256:f2a19f302cd1ce5dd01a9099aaa19cae6173306d1302a43b627f62e21cf18ac0 \
    --hash=sha256:f654882311409afb1d780b940234208a252322c24a93b442ca714d119e68086c \
    --hash=sha256:f65557897fc977a44ab205ea871b690adaef6b9da6afda4790a2484b04293a5f \
    --hash=sha256:f9d1e379028e0fc2ae3654bac3cbbef81bf3fd571272a42d56c24007979bafb6 \
    --hash=sha256:fdabbfc59f2c6edba2a6622c647b716e34e8e3867e0ab975412c5c2f79b82da2 \
    --hash=sha256:fdd6028445d2460f33136c55eeb1f601ab06d74cb3347132e1c24250187500d9 \
    --hash=sha256:ff590880083d60acc0433f9c3f713c51f7ac6ebb9adf889c79a261ecf541aa91
requests==2.32.3 ; python_version >= "3.10" and python_version < "4.0" \
    --hash=sha256:55365417734eb18255590a9ff9eb97e9e1da868d4ccd6402399eaf68af20a760 \
    --hash=sha256:70761cfe03c773ceb22aa2f671b4757976145175cdfca038c02654d061d6dcc6
six==1.17.0 ; python_version >= "3.10" and python_version < "4.0" \
    --hash=sha256:4721f391ed90541fddacab5acf947aa0d3dc7d27b2e1e8eda2be8970586c3274 \
    --hash=sha256:ff70335d468e7eb6ec65b95b99d3a2836546063f63acc5171de367e834932a81
urllib3==2.3.0 ; python_version >= "3.10" and python_version < "4.0" \
    --hash=sha256:1cee9ad369867bfdbbb48b7dd50374c0967a0bb7710050facf0dd6911440e3df \
    --hash=sha256:f8c5449b3cf0861679ce7e0503c7b44b5ec981bec0d1d3795a07f1ba96f0204d
watchdog==6.0.0 ; python_version >= "3.10" and python_version < "4.0" \
    --hash=sha256:07df1fdd701c5d4c8e55ef6cf55b8f0120fe1aef7ef39a1c6fc6bc2e606d517a \
    --hash=sha256:20ffe5b202af80ab4266dcd3e91aae72bf2da48c0d33bdb15c66658e685e94e2 \
    --hash=sha256:212ac9b8bf1161dc91bd09c048048a95ca3a4c4f5e5d4a7d1b1a7d5752a7f96f \
    --hash=sha256:2cce7cfc2008eb51feb6aab51251fd79b85d9894e98ba847408f662b3395ca3c \
    --hash=sha256:490ab2ef84f11129844c23fb14ecf30ef3d8a6abafd3754a6f75ca1e6654136c \
    --hash=sha256:6eb11feb5a0d452ee41f824e271ca311a09e250441c262ca2fd7ebcf2461a06c \
    --hash=sha256:6f10cb2d5902447c7d0da897e2c6768bca89174d0c6e1e30abec5421af97a5b0 \
    --hash=sha256:7607498efa04a3542ae3e05e64da8202e58159aa1fa4acddf7678d34a35d4f13 \
    --hash=sha256:76aae96b00ae814b181bb25b1b98076d5fc84e8a53cd8885a318b42b6d3a5134 \
    --hash=sha256:7a0e56874cfbc4b9b05c60c8a1926fedf56324bb08cfbc188969777940aef3aa \
    --hash=sha256:82dc3e3143c7e38ec49d61af98d6558288c415eac98486a5c581726e0737c00e \
    --hash=sha256:9041567ee8953024c83343288ccc458fd0a2d811d6a0fd68c4c22609e3490379 \
    --hash=sha256:90c8e78f3b94014f7aaae121e6b909674df5b46ec24d6bebc45c44c56729af2a \
    --hash=sha256:9513f27a1a582d9808cf21a07dae516f0fab1cf2d7683a742c498b93eedabb11 \
    --hash=sha256:9ddf7c82fda3ae8e24decda1338ede66e1c99883db93711d8fb941eaa2d8c282 \
    --hash=sha256:a175f755fc2279e0b7312c0035d52e27211a5bc39719dd529625b1930917345b \
    --hash=sha256:a1914259fa9e1454315171103c6a30961236f508b9b623eae470268bbcc6a22f \
    --hash=sha256:afd0fe1b2270917c5e23c2a65ce50c2a4abb63daafb0d419fde368e272a76b7c \
    --hash=sha256:bc64ab3bdb6a04d69d4023b29422170b74681784ffb9463ed4870cf2f3e66112 \
    --hash=sha256:bdd4e6f14b8b18c334febb9c4425a878a2ac20efd1e0b231978e7b150f92a948 \
    --hash=sha256:c7ac31a19f4545dd92fc25d200694098f42c9a8e391bc00bdd362c5736dbf881 \
    --hash=sha256:c7c15dda13c4eb00d6fb6fc508b3c0ed88b9d5d374056b239c4ad1611125c860 \
    --hash=sha256:c897ac1b55c5a1461e16dae288d22bb2e412ba9807df8397a635d88f671d36c3 \
    --hash=sha256:cbafb470cf848d93b5d013e2ecb245d4aa1c8fd0504e863ccefa32445359d680 \
    --hash=sha256:d1cdb490583ebd691c012b3d6dae011000fe42edb7a82ece80965b42abd61f26 \
    --hash=sha256:e3df4cbb9a450c6d49318f6d14f4bbc80d763fa587ba46ec86f99f9e6876bb26 \
    --hash=sha256:e6439e374fc012255b4ec786ae3c4bc838cd7309a540e5fe0952d03687d8804e \
    --hash=sha256:e6f0e77c9417e7cd62af82529b10563db3423625c5fce018430b249bf977f9e8 \
    --hash=sha256:e7631a77ffb1f7d2eefa4445ebbee491c720a5661ddf6df3498ebecae5ed375c \
    --hash=sha256:ef810fbf7b781a5a593894e4f439773830bdecb885e6880d957d5b9382a960d2
